{"count":34,"next":"http://127.0.0.1:8000/users/?_=1546094391466&callback=jQuery33102531172609567951_1546094391465&page=2","previous":null,"results":[{"url":"http://127.0.0.1:8000/users/38/","username":"abdul-samad","email":"abdulsamad@gmail.com"},
  {"url":"http://127.0.0.1:8000/users/37/","username":"moip","email":"moip@gmail.com"},
  {"url":"http://127.0.0.1:8000/users/36/","username":"reza","email":"reza@gmail.com"},
  {"url":"http://127.0.0.1:8000/users/35/","username":"azer","email":"azer@gmail.com"},
  {"url":"http://127.0.0.1:8000/users/34/","username":"papy","email":"papy@gmail.com"},
  {"url":"http://127.0.0.1:8000/users/33/","username":"mamy","email":"mamy@gmail.com"},{"url":"http://127.0.0.1:8000/users/32/","username":"jackson","email":"jackson@gmail.com"},{"url":"http://127.0.0.1:8000/users/31/","username":"neji","email":"neji@gmail.com"},{"url":"http://127.0.0.1:8000/users/30/","username":"rfgt","email":"erf@gmail.com"},{"url":"http://127.0.0.1:8000/users/29/","username":"mois","email":"tois@gmail.com"}]}